{
  "$schema": "https://raw.githubusercontent.com/jetify-com/devbox/0.10.5/.schema/devbox.schema.json",
  "packages": [
    "nodejs-slim@latest",
    "python-minimal@latest",
    "typescript@latest"
  ],
  "env": {
    "DEVBOX_COREPACK_ENABLED": "true"
  },
  "shell": {
    "init_hook": [
      "echo 'Welcome to devbox!' > /dev/null"
    ],
    "scripts": {
      "test": [
        "echo \"Error: no test specified\" && exit 1"
      ]
    }
  }
}
